<svg version="1.1" id="Lager_1" xmlns="http://www.w3.org/2000/svg" xmlns:xlink="http://www.w3.org/1999/xlink" x="0px" y="0px"
	 viewBox="0 0 465.66 354.55" style="enable-background:new 0 0 465.66 354.55;" xml:space="preserve">
<style type="text/css">
	.st0{fill:#E26713;stroke:#E26713;stroke-width:8;stroke-miterlimit:10;}
	.st1{fill:#F7931E;stroke:#E26713;stroke-width:8;stroke-miterlimit:10;}
</style>
<g id="Group_20" transform="translate(-561.969 -1827.796)">
	<g id="Group_11" transform="translate(-142.708 1498.442)">
		<path id="Path_8" class="st0" d="M1026.97,434.95H884.28v-20.06c0-5.04-5.07-13.06-5.07-13.06s-6.24-4.57-10.3-4.57h-64.87
			c-8.46,0-15.38,7.93-15.38,17.63v183.48c0,9.7,6.92,17.63,15.38,17.63h222.93c8.46,0,15.38-7.93,15.38-17.63V452.58
			C1042.35,442.88,1035.43,434.95,1026.97,434.95z"/>
		<path id="Path_9" class="st1" d="M1042.5,616H804.04c-8.48-0.02-15.35-6.89-15.38-15.38l28.48-127.16
			c0.03-8.48,6.9-15.35,15.38-15.38h238.47c8.48,0.03,15.35,6.89,15.38,15.38l-28.47,127.16
			C1057.86,609.1,1050.99,615.97,1042.5,616z"/>
	</g>
</g>
</svg>
